stm32f4xx_hal_pcd_ex.c:89:19:HAL_PCDEx_SetTxFiFo	8	static
stm32f4xx_hal_pcd_ex.c:131:19:HAL_PCDEx_SetRxFiFo	0	static
stm32f4xx_hal_pcd_ex.c:145:19:HAL_PCDEx_ActivateLPM	0	static
stm32f4xx_hal_pcd_ex.c:162:19:HAL_PCDEx_DeActivateLPM	0	static
stm32f4xx_hal_pcd_ex.c:179:13:HAL_PCDEx_LPM_Callback	0	static
stm32f4xx_hal_pcd_ex.c:264:19:HAL_PCDEx_ActivateBCD	0	static
stm32f4xx_hal_pcd_ex.c:279:19:HAL_PCDEx_DeActivateBCD	0	static
stm32f4xx_hal_pcd_ex.c:293:13:HAL_PCDEx_BCD_Callback	0	static
stm32f4xx_hal_pcd_ex.c:193:6:HAL_PCDEx_BCD_VBUSDetect	16	static
