<?xml version="1.0" encoding="utf-8" standalone="no"?>
<!DOCTYPE svg PUBLIC "-//W3C//DTD SVG 1.1//EN"
  "http://www.w3.org/Graphics/SVG/1.1/DTD/svg11.dtd">
<!-- Created with matplotlib (http://matplotlib.org/) -->
<svg height="709.2pt" version="1.1" viewBox="0 0 1382.4 709.2" width="1382.4pt" xmlns="http://www.w3.org/2000/svg" xmlns:xlink="http://www.w3.org/1999/xlink">
 <defs>
  <style type="text/css">
*{stroke-linecap:butt;stroke-linejoin:round;}
  </style>
 </defs>
 <g id="figure_1">
  <g id="patch_1">
   <path d="M 0 709.2 
L 1382.4 709.2 
L 1382.4 0 
L 0 0 
z
" style="fill:#ffffff;"/>
  </g>
  <g id="axes_1">
   <g id="patch_2">
    <path d="M 172.8 631.188 
L 1244.16 631.188 
L 1244.16 85.104 
L 172.8 85.104 
z
" style="fill:#eaeaf2;"/>
   </g>
   <g id="matplotlib.axis_1">
    <g id="xtick_1">
     <g id="line2d_1">
      <path clip-path="url(#p854084e582)" d="M 274.453471 631.188 
L 274.453471 85.104 
" style="fill:none;stroke:#ffffff;stroke-linecap:round;stroke-width:0.8;"/>
     </g>
     <g id="line2d_2"/>
     <g id="text_1">
      <!-- 1.98 -->
      <defs>
       <path d="M 37.25 0 
L 28.46875 0 
L 28.46875 56 
Q 25.296875 52.984375 20.140625 49.953125 
Q 14.984375 46.921875 10.890625 45.40625 
L 10.890625 53.90625 
Q 18.265625 57.375 23.78125 62.296875 
Q 29.296875 67.234375 31.59375 71.875 
L 37.25 71.875 
z
" id="ArialMT-31"/>
       <path d="M 9.078125 0 
L 9.078125 10.015625 
L 19.09375 10.015625 
L 19.09375 0 
z
" id="ArialMT-2e"/>
       <path d="M 5.46875 16.546875 
L 13.921875 17.328125 
Q 14.984375 11.375 18.015625 8.6875 
Q 21.046875 6 25.78125 6 
Q 29.828125 6 32.875 7.859375 
Q 35.9375 9.71875 37.890625 12.8125 
Q 39.84375 15.921875 41.15625 21.1875 
Q 42.484375 26.46875 42.484375 31.9375 
Q 42.484375 32.515625 42.4375 33.6875 
Q 39.796875 29.5 35.234375 26.875 
Q 30.671875 24.265625 25.34375 24.265625 
Q 16.453125 24.265625 10.296875 30.703125 
Q 4.15625 37.15625 4.15625 47.703125 
Q 4.15625 58.59375 10.578125 65.234375 
Q 17 71.875 26.65625 71.875 
Q 33.640625 71.875 39.421875 68.109375 
Q 45.21875 64.359375 48.21875 57.390625 
Q 51.21875 50.4375 51.21875 37.25 
Q 51.21875 23.53125 48.234375 15.40625 
Q 45.265625 7.28125 39.375 3.03125 
Q 33.5 -1.21875 25.59375 -1.21875 
Q 17.1875 -1.21875 11.859375 3.4375 
Q 6.546875 8.109375 5.46875 16.546875 
z
M 41.453125 48.140625 
Q 41.453125 55.71875 37.421875 60.15625 
Q 33.40625 64.59375 27.734375 64.59375 
Q 21.875 64.59375 17.53125 59.8125 
Q 13.1875 55.03125 13.1875 47.40625 
Q 13.1875 40.578125 17.3125 36.296875 
Q 21.4375 32.03125 27.484375 32.03125 
Q 33.59375 32.03125 37.515625 36.296875 
Q 41.453125 40.578125 41.453125 48.140625 
z
" id="ArialMT-39"/>
       <path d="M 17.671875 38.8125 
Q 12.203125 40.828125 9.5625 44.53125 
Q 6.9375 48.25 6.9375 53.421875 
Q 6.9375 61.234375 12.546875 66.546875 
Q 18.171875 71.875 27.484375 71.875 
Q 36.859375 71.875 42.578125 66.421875 
Q 48.296875 60.984375 48.296875 53.171875 
Q 48.296875 48.1875 45.671875 44.5 
Q 43.0625 40.828125 37.75 38.8125 
Q 44.34375 36.671875 47.78125 31.875 
Q 51.21875 27.09375 51.21875 20.453125 
Q 51.21875 11.28125 44.71875 5.03125 
Q 38.234375 -1.21875 27.640625 -1.21875 
Q 17.046875 -1.21875 10.546875 5.046875 
Q 4.046875 11.328125 4.046875 20.703125 
Q 4.046875 27.6875 7.59375 32.390625 
Q 11.140625 37.109375 17.671875 38.8125 
z
M 15.921875 53.71875 
Q 15.921875 48.640625 19.1875 45.40625 
Q 22.46875 42.1875 27.6875 42.1875 
Q 32.765625 42.1875 36.015625 45.375 
Q 39.265625 48.578125 39.265625 53.21875 
Q 39.265625 58.0625 35.90625 61.359375 
Q 32.5625 64.65625 27.59375 64.65625 
Q 22.5625 64.65625 19.234375 61.421875 
Q 15.921875 58.203125 15.921875 53.71875 
z
M 13.09375 20.65625 
Q 13.09375 16.890625 14.875 13.375 
Q 16.65625 9.859375 20.171875 7.921875 
Q 23.6875 6 27.734375 6 
Q 34.03125 6 38.125 10.046875 
Q 42.234375 14.109375 42.234375 20.359375 
Q 42.234375 26.703125 38.015625 30.859375 
Q 33.796875 35.015625 27.4375 35.015625 
Q 21.234375 35.015625 17.15625 30.90625 
Q 13.09375 26.8125 13.09375 20.65625 
z
" id="ArialMT-38"/>
      </defs>
      <g style="fill:#262626;" transform="translate(264.723002 641.845812)scale(0.1 -0.1)">
       <use xlink:href="#ArialMT-31"/>
       <use x="55.615234" xlink:href="#ArialMT-2e"/>
       <use x="83.398438" xlink:href="#ArialMT-39"/>
       <use x="139.013672" xlink:href="#ArialMT-38"/>
      </g>
     </g>
    </g>
    <g id="xtick_2">
     <g id="line2d_3">
      <path clip-path="url(#p854084e582)" d="M 443.750842 631.188 
L 443.750842 85.104 
" style="fill:none;stroke:#ffffff;stroke-linecap:round;stroke-width:0.8;"/>
     </g>
     <g id="line2d_4"/>
     <g id="text_2">
      <!-- 2.00 -->
      <defs>
       <path d="M 50.34375 8.453125 
L 50.34375 0 
L 3.03125 0 
Q 2.9375 3.171875 4.046875 6.109375 
Q 5.859375 10.9375 9.828125 15.625 
Q 13.8125 20.3125 21.34375 26.46875 
Q 33.015625 36.03125 37.109375 41.625 
Q 41.21875 47.21875 41.21875 52.203125 
Q 41.21875 57.421875 37.46875 61 
Q 33.734375 64.59375 27.734375 64.59375 
Q 21.390625 64.59375 17.578125 60.78125 
Q 13.765625 56.984375 13.71875 50.25 
L 4.6875 51.171875 
Q 5.609375 61.28125 11.65625 66.578125 
Q 17.71875 71.875 27.9375 71.875 
Q 38.234375 71.875 44.234375 66.15625 
Q 50.25 60.453125 50.25 52 
Q 50.25 47.703125 48.484375 43.546875 
Q 46.734375 39.40625 42.65625 34.8125 
Q 38.578125 30.21875 29.109375 22.21875 
Q 21.1875 15.578125 18.9375 13.203125 
Q 16.703125 10.84375 15.234375 8.453125 
z
" id="ArialMT-32"/>
       <path d="M 4.15625 35.296875 
Q 4.15625 48 6.765625 55.734375 
Q 9.375 63.484375 14.515625 67.671875 
Q 19.671875 71.875 27.484375 71.875 
Q 33.25 71.875 37.59375 69.546875 
Q 41.9375 67.234375 44.765625 62.859375 
Q 47.609375 58.5 49.21875 52.21875 
Q 50.828125 45.953125 50.828125 35.296875 
Q 50.828125 22.703125 48.234375 14.96875 
Q 45.65625 7.234375 40.5 3 
Q 35.359375 -1.21875 27.484375 -1.21875 
Q 17.140625 -1.21875 11.234375 6.203125 
Q 4.15625 15.140625 4.15625 35.296875 
z
M 13.1875 35.296875 
Q 13.1875 17.671875 17.3125 11.828125 
Q 21.4375 6 27.484375 6 
Q 33.546875 6 37.671875 11.859375 
Q 41.796875 17.71875 41.796875 35.296875 
Q 41.796875 52.984375 37.671875 58.78125 
Q 33.546875 64.59375 27.390625 64.59375 
Q 21.34375 64.59375 17.71875 59.46875 
Q 13.1875 52.9375 13.1875 35.296875 
z
" id="ArialMT-30"/>
      </defs>
      <g style="fill:#262626;" transform="translate(434.020373 641.845812)scale(0.1 -0.1)">
       <use xlink:href="#ArialMT-32"/>
       <use x="55.615234" xlink:href="#ArialMT-2e"/>
       <use x="83.398438" xlink:href="#ArialMT-30"/>
       <use x="139.013672" xlink:href="#ArialMT-30"/>
      </g>
     </g>
    </g>
    <g id="xtick_3">
     <g id="line2d_5">
      <path clip-path="url(#p854084e582)" d="M 613.048213 631.188 
L 613.048213 85.104 
" style="fill:none;stroke:#ffffff;stroke-linecap:round;stroke-width:0.8;"/>
     </g>
     <g id="line2d_6"/>
     <g id="text_3">
      <!-- 2.02 -->
      <g style="fill:#262626;" transform="translate(603.317744 641.845812)scale(0.1 -0.1)">
       <use xlink:href="#ArialMT-32"/>
       <use x="55.615234" xlink:href="#ArialMT-2e"/>
       <use x="83.398438" xlink:href="#ArialMT-30"/>
       <use x="139.013672" xlink:href="#ArialMT-32"/>
      </g>
     </g>
    </g>
    <g id="xtick_4">
     <g id="line2d_7">
      <path clip-path="url(#p854084e582)" d="M 782.345584 631.188 
L 782.345584 85.104 
" style="fill:none;stroke:#ffffff;stroke-linecap:round;stroke-width:0.8;"/>
     </g>
     <g id="line2d_8"/>
     <g id="text_4">
      <!-- 2.04 -->
      <defs>
       <path d="M 32.328125 0 
L 32.328125 17.140625 
L 1.265625 17.140625 
L 1.265625 25.203125 
L 33.9375 71.578125 
L 41.109375 71.578125 
L 41.109375 25.203125 
L 50.78125 25.203125 
L 50.78125 17.140625 
L 41.109375 17.140625 
L 41.109375 0 
z
M 32.328125 25.203125 
L 32.328125 57.46875 
L 9.90625 25.203125 
z
" id="ArialMT-34"/>
      </defs>
      <g style="fill:#262626;" transform="translate(772.615115 641.845812)scale(0.1 -0.1)">
       <use xlink:href="#ArialMT-32"/>
       <use x="55.615234" xlink:href="#ArialMT-2e"/>
       <use x="83.398438" xlink:href="#ArialMT-30"/>
       <use x="139.013672" xlink:href="#ArialMT-34"/>
      </g>
     </g>
    </g>
    <g id="xtick_5">
     <g id="line2d_9">
      <path clip-path="url(#p854084e582)" d="M 951.642955 631.188 
L 951.642955 85.104 
" style="fill:none;stroke:#ffffff;stroke-linecap:round;stroke-width:0.8;"/>
     </g>
     <g id="line2d_10"/>
     <g id="text_5">
      <!-- 2.06 -->
      <defs>
       <path d="M 49.75 54.046875 
L 41.015625 53.375 
Q 39.84375 58.546875 37.703125 60.890625 
Q 34.125 64.65625 28.90625 64.65625 
Q 24.703125 64.65625 21.53125 62.3125 
Q 17.390625 59.28125 14.984375 53.46875 
Q 12.59375 47.65625 12.5 36.921875 
Q 15.671875 41.75 20.265625 44.09375 
Q 24.859375 46.4375 29.890625 46.4375 
Q 38.671875 46.4375 44.84375 39.96875 
Q 51.03125 33.5 51.03125 23.25 
Q 51.03125 16.5 48.125 10.71875 
Q 45.21875 4.9375 40.140625 1.859375 
Q 35.0625 -1.21875 28.609375 -1.21875 
Q 17.625 -1.21875 10.6875 6.859375 
Q 3.765625 14.9375 3.765625 33.5 
Q 3.765625 54.25 11.421875 63.671875 
Q 18.109375 71.875 29.4375 71.875 
Q 37.890625 71.875 43.28125 67.140625 
Q 48.6875 62.40625 49.75 54.046875 
z
M 13.875 23.1875 
Q 13.875 18.65625 15.796875 14.5 
Q 17.71875 10.359375 21.1875 8.171875 
Q 24.65625 6 28.46875 6 
Q 34.03125 6 38.03125 10.484375 
Q 42.046875 14.984375 42.046875 22.703125 
Q 42.046875 30.125 38.078125 34.390625 
Q 34.125 38.671875 28.125 38.671875 
Q 22.171875 38.671875 18.015625 34.390625 
Q 13.875 30.125 13.875 23.1875 
z
" id="ArialMT-36"/>
      </defs>
      <g style="fill:#262626;" transform="translate(941.912487 641.845812)scale(0.1 -0.1)">
       <use xlink:href="#ArialMT-32"/>
       <use x="55.615234" xlink:href="#ArialMT-2e"/>
       <use x="83.398438" xlink:href="#ArialMT-30"/>
       <use x="139.013672" xlink:href="#ArialMT-36"/>
      </g>
     </g>
    </g>
    <g id="xtick_6">
     <g id="line2d_11">
      <path clip-path="url(#p854084e582)" d="M 1120.940326 631.188 
L 1120.940326 85.104 
" style="fill:none;stroke:#ffffff;stroke-linecap:round;stroke-width:0.8;"/>
     </g>
     <g id="line2d_12"/>
     <g id="text_6">
      <!-- 2.08 -->
      <g style="fill:#262626;" transform="translate(1111.209858 641.845812)scale(0.1 -0.1)">
       <use xlink:href="#ArialMT-32"/>
       <use x="55.615234" xlink:href="#ArialMT-2e"/>
       <use x="83.398438" xlink:href="#ArialMT-30"/>
       <use x="139.013672" xlink:href="#ArialMT-38"/>
      </g>
     </g>
    </g>
   </g>
   <g id="matplotlib.axis_2">
    <g id="ytick_1">
     <g id="line2d_13">
      <path clip-path="url(#p854084e582)" d="M 172.8 627.255511 
L 1244.16 627.255511 
" style="fill:none;stroke:#ffffff;stroke-linecap:round;stroke-width:0.8;"/>
     </g>
     <g id="line2d_14"/>
     <g id="text_7">
      <!-- −8000 -->
      <defs>
       <path d="M 52.828125 31.203125 
L 5.5625 31.203125 
L 5.5625 39.40625 
L 52.828125 39.40625 
z
" id="ArialMT-2212"/>
      </defs>
      <g style="fill:#262626;" transform="translate(141.215625 630.834417)scale(0.1 -0.1)">
       <use xlink:href="#ArialMT-2212"/>
       <use x="58.398438" xlink:href="#ArialMT-38"/>
       <use x="114.013672" xlink:href="#ArialMT-30"/>
       <use x="169.628906" xlink:href="#ArialMT-30"/>
       <use x="225.244141" xlink:href="#ArialMT-30"/>
      </g>
     </g>
    </g>
    <g id="ytick_2">
     <g id="line2d_15">
      <path clip-path="url(#p854084e582)" d="M 172.8 559.57665 
L 1244.16 559.57665 
" style="fill:none;stroke:#ffffff;stroke-linecap:round;stroke-width:0.8;"/>
     </g>
     <g id="line2d_16"/>
     <g id="text_8">
      <!-- −6000 -->
      <g style="fill:#262626;" transform="translate(141.215625 563.155556)scale(0.1 -0.1)">
       <use xlink:href="#ArialMT-2212"/>
       <use x="58.398438" xlink:href="#ArialMT-36"/>
       <use x="114.013672" xlink:href="#ArialMT-30"/>
       <use x="169.628906" xlink:href="#ArialMT-30"/>
       <use x="225.244141" xlink:href="#ArialMT-30"/>
      </g>
     </g>
    </g>
    <g id="ytick_3">
     <g id="line2d_17">
      <path clip-path="url(#p854084e582)" d="M 172.8 491.897789 
L 1244.16 491.897789 
" style="fill:none;stroke:#ffffff;stroke-linecap:round;stroke-width:0.8;"/>
     </g>
     <g id="line2d_18"/>
     <g id="text_9">
      <!-- −4000 -->
      <g style="fill:#262626;" transform="translate(141.215625 495.476695)scale(0.1 -0.1)">
       <use xlink:href="#ArialMT-2212"/>
       <use x="58.398438" xlink:href="#ArialMT-34"/>
       <use x="114.013672" xlink:href="#ArialMT-30"/>
       <use x="169.628906" xlink:href="#ArialMT-30"/>
       <use x="225.244141" xlink:href="#ArialMT-30"/>
      </g>
     </g>
    </g>
    <g id="ytick_4">
     <g id="line2d_19">
      <path clip-path="url(#p854084e582)" d="M 172.8 424.218928 
L 1244.16 424.218928 
" style="fill:none;stroke:#ffffff;stroke-linecap:round;stroke-width:0.8;"/>
     </g>
     <g id="line2d_20"/>
     <g id="text_10">
      <!-- −2000 -->
      <g style="fill:#262626;" transform="translate(141.215625 427.797834)scale(0.1 -0.1)">
       <use xlink:href="#ArialMT-2212"/>
       <use x="58.398438" xlink:href="#ArialMT-32"/>
       <use x="114.013672" xlink:href="#ArialMT-30"/>
       <use x="169.628906" xlink:href="#ArialMT-30"/>
       <use x="225.244141" xlink:href="#ArialMT-30"/>
      </g>
     </g>
    </g>
    <g id="ytick_5">
     <g id="line2d_21">
      <path clip-path="url(#p854084e582)" d="M 172.8 356.540067 
L 1244.16 356.540067 
" style="fill:none;stroke:#ffffff;stroke-linecap:round;stroke-width:0.8;"/>
     </g>
     <g id="line2d_22"/>
     <g id="text_11">
      <!-- 0 -->
      <g style="fill:#262626;" transform="translate(163.739062 360.118973)scale(0.1 -0.1)">
       <use xlink:href="#ArialMT-30"/>
      </g>
     </g>
    </g>
    <g id="ytick_6">
     <g id="line2d_23">
      <path clip-path="url(#p854084e582)" d="M 172.8 288.861205 
L 1244.16 288.861205 
" style="fill:none;stroke:#ffffff;stroke-linecap:round;stroke-width:0.8;"/>
     </g>
     <g id="line2d_24"/>
     <g id="text_12">
      <!-- 2000 -->
      <g style="fill:#262626;" transform="translate(147.05625 292.440112)scale(0.1 -0.1)">
       <use xlink:href="#ArialMT-32"/>
       <use x="55.615234" xlink:href="#ArialMT-30"/>
       <use x="111.230469" xlink:href="#ArialMT-30"/>
       <use x="166.845703" xlink:href="#ArialMT-30"/>
      </g>
     </g>
    </g>
    <g id="ytick_7">
     <g id="line2d_25">
      <path clip-path="url(#p854084e582)" d="M 172.8 221.182344 
L 1244.16 221.182344 
" style="fill:none;stroke:#ffffff;stroke-linecap:round;stroke-width:0.8;"/>
     </g>
     <g id="line2d_26"/>
     <g id="text_13">
      <!-- 4000 -->
      <g style="fill:#262626;" transform="translate(147.05625 224.761251)scale(0.1 -0.1)">
       <use xlink:href="#ArialMT-34"/>
       <use x="55.615234" xlink:href="#ArialMT-30"/>
       <use x="111.230469" xlink:href="#ArialMT-30"/>
       <use x="166.845703" xlink:href="#ArialMT-30"/>
      </g>
     </g>
    </g>
    <g id="ytick_8">
     <g id="line2d_27">
      <path clip-path="url(#p854084e582)" d="M 172.8 153.503483 
L 1244.16 153.503483 
" style="fill:none;stroke:#ffffff;stroke-linecap:round;stroke-width:0.8;"/>
     </g>
     <g id="line2d_28"/>
     <g id="text_14">
      <!-- 6000 -->
      <g style="fill:#262626;" transform="translate(147.05625 157.082389)scale(0.1 -0.1)">
       <use xlink:href="#ArialMT-36"/>
       <use x="55.615234" xlink:href="#ArialMT-30"/>
       <use x="111.230469" xlink:href="#ArialMT-30"/>
       <use x="166.845703" xlink:href="#ArialMT-30"/>
      </g>
     </g>
    </g>
    <g id="ytick_9">
     <g id="line2d_29">
      <path clip-path="url(#p854084e582)" d="M 172.8 85.824622 
L 1244.16 85.824622 
" style="fill:none;stroke:#ffffff;stroke-linecap:round;stroke-width:0.8;"/>
     </g>
     <g id="line2d_30"/>
     <g id="text_15">
      <!-- 8000 -->
      <g style="fill:#262626;" transform="translate(147.05625 89.403528)scale(0.1 -0.1)">
       <use xlink:href="#ArialMT-38"/>
       <use x="55.615234" xlink:href="#ArialMT-30"/>
       <use x="111.230469" xlink:href="#ArialMT-30"/>
       <use x="166.845703" xlink:href="#ArialMT-30"/>
      </g>
     </g>
    </g>
   </g>
   <g id="line2d_31">
    <path clip-path="url(#p854084e582)" d="M 169.230792 356.776943 
L 177.698112 356.540067 
L 186.165431 355.626402 
L 194.63275 356.641585 
L 203.100069 356.438548 
L 211.567389 356.540067 
L 220.034708 356.303191 
L 228.502027 356.776943 
L 236.969347 356.438548 
L 245.436666 357.453731 
L 253.903985 193.53553 
L 262.371305 470.917342 
L 270.838624 378.840251 
L 279.305943 307.675929 
L 287.773262 404.998131 
L 296.240582 401.038918 
L 304.707901 576.631723 
L 313.17522 274.648645 
L 321.64254 316.54186 
L 330.109859 222.468243 
L 338.577178 292.888098 
L 347.044498 421.511773 
L 355.511817 423.914373 
L 363.979136 206.496031 
L 372.446455 603.297194 
L 380.913775 474.368964 
L 389.381094 141.21977 
L 397.848413 86.129177 
L 406.315733 556.02351 
L 414.783052 385.43894 
L 423.250371 307.811287 
L 431.717691 452.305655 
L 440.18501 202.638336 
L 448.652329 454.945131 
L 457.119648 312.95488 
L 465.586968 396.030682 
L 474.054287 386.65716 
L 482.521606 396.808989 
L 490.988926 396.808989 
L 499.456245 382.799465 
L 507.923564 337.150073 
L 516.390884 195.261341 
L 524.858203 328.554858 
L 533.325522 393.120491 
L 541.792841 382.934822 
L 550.260161 230.657385 
L 558.72748 618.085025 
L 567.194799 511.355461 
L 575.662119 101.593797 
L 584.129438 518.766297 
L 592.596757 327.878069 
L 601.064077 430.242346 
L 609.531396 300.400451 
L 617.998715 392.206826 
L 626.466034 307.811287 
L 634.933354 321.685453 
L 643.400673 314.13926 
L 651.867992 378.468018 
L 660.335312 352.208619 
L 668.802631 314.951406 
L 677.26995 351.937904 
L 685.73727 365.507516 
L 694.204589 349.027713 
L 702.671908 245.072982 
L 711.139227 425.098753 
L 719.606547 278.337143 
L 728.073866 411.359944 
L 736.541185 331.058975 
L 745.008505 261.958858 
L 753.475824 496.026199 
L 761.943143 243.482529 
L 770.410463 452.305655 
L 778.877782 379.787755 
L 787.345101 309.40174 
L 795.81242 339.248118 
L 804.27974 359.044184 
L 812.747059 406.453227 
L 821.214378 474.098248 
L 829.681698 306.99914 
L 838.149017 319.959642 
L 846.616336 375.693184 
L 855.083656 367.60556 
L 863.550975 361.142229 
L 872.018294 414.777727 
L 880.485613 274.91936 
L 888.952933 463.811061 
L 897.420252 369.872802 
L 905.887571 296.847311 
L 914.354891 369.872802 
L 922.82221 203.721198 
L 931.289529 444.624104 
L 939.756849 305.679402 
L 948.224168 324.054213 
L 956.691487 462.220608 
L 965.158806 281.788764 
L 973.626126 415.589873 
L 982.093445 351.531831 
L 990.560764 281.924122 
L 999.028084 444.624104 
L 1007.495403 319.418211 
L 1015.962722 334.882831 
L 1024.430042 379.381682 
L 1032.897361 342.158309 
L 1041.36468 349.027713 
L 1049.831999 337.285431 
L 1058.299319 396.436755 
L 1066.766638 350.212093 
L 1075.233957 338.842044 
L 1083.701277 358.908827 
L 1092.168596 364.323136 
L 1100.635915 374.610323 
L 1109.103235 369.872802 
L 1117.570554 342.699739 
L 1126.037873 382.021158 
L 1134.505192 331.329691 
L 1142.972512 356.167833 
L 1151.439831 361.548302 
L 1159.90715 367.233327 
L 1168.37447 363.646347 
L 1176.841789 350.076735 
L 1185.309108 350.076735 
L 1193.776428 362.191251 
L 1202.243747 370.921825 
L 1210.711066 344.019477 
L 1219.178385 354.306664 
L 1227.645705 372.37692 
L 1236.113024 368.146991 
L 1244.580343 361.006871 
L 1244.580343 361.006871 
" style="fill:none;stroke:#1f77b4;stroke-linecap:round;stroke-width:1.5;"/>
   </g>
   <g id="line2d_32">
    <path clip-path="url(#p854084e582)" d="M 169.230792 355.897117 
L 177.698112 356.9123 
L 186.165431 356.167833 
L 194.63275 356.167833 
L 203.100069 356.776943 
L 211.567389 355.897117 
L 220.034708 355.355687 
L 228.502027 356.776943 
L 236.969347 356.438548 
L 245.436666 350.076735 
L 253.903985 297.896333 
L 262.371305 249.167553 
L 270.838624 377.655871 
L 279.305943 448.989391 
L 287.773262 493.116008 
L 296.240582 469.22537 
L 304.707901 369.872802 
L 313.17522 416.36818 
L 321.64254 113.87751 
L 330.109859 259.725456 
L 338.577178 194.313836 
L 347.044498 412.273609 
L 355.511817 372.918351 
L 363.979136 375.151753 
L 372.446455 253.769716 
L 380.913775 452.305655 
L 389.381094 499.850055 
L 397.848413 627.086314 
L 406.315733 301.584831 
L 414.783052 321.820811 
L 423.250371 220.471716 
L 431.717691 267.914598 
L 440.18501 461.679177 
L 448.652329 273.058191 
L 457.119648 455.994153 
L 465.586968 204.364147 
L 474.054287 375.151753 
L 482.521606 435.38594 
L 490.988926 347.166544 
L 499.456245 501.034435 
L 507.923564 343.071973 
L 516.390884 295.392216 
L 524.858203 293.158813 
L 533.325522 224.194054 
L 541.792841 413.051916 
L 550.260161 308.995667 
L 558.72748 529.730272 
L 567.194799 567.630434 
L 575.662119 313.496311 
L 584.129438 331.735764 
L 592.596757 207.815769 
L 601.064077 354.442022 
L 609.531396 398.264084 
L 617.998715 348.892355 
L 626.466034 148.765963 
L 634.933354 535.78753 
L 643.400673 386.65716 
L 651.867992 332.107998 
L 660.335312 373.5613 
L 668.802631 270.960147 
L 677.26995 323.783498 
L 685.73727 340.703213 
L 694.204589 364.05242 
L 702.671908 348.62164 
L 711.139227 401.580349 
L 719.606547 460.088724 
L 728.073866 443.304367 
L 736.541185 334.612116 
L 745.008505 213.73767 
L 753.475824 452.847086 
L 761.943143 244.260836 
L 770.410463 416.638895 
L 778.877782 332.649429 
L 787.345101 268.96362 
L 795.81242 321.956169 
L 804.27974 344.527069 
L 812.747059 308.995667 
L 821.214378 440.935606 
L 829.681698 416.36818 
L 846.616336 290.620856 
L 855.083656 314.003902 
L 863.550975 387.84154 
L 872.018294 455.080488 
L 880.485613 455.080488 
L 888.952933 337.285431 
L 897.420252 343.748762 
L 905.887571 283.514575 
L 914.354891 390.345658 
L 922.82221 382.021158 
L 931.289529 323.411264 
L 939.756849 356.540067 
L 948.224168 331.465049 
L 956.691487 294.207835 
L 965.158806 314.274618 
L 973.626126 313.767026 
L 982.093445 448.211084 
L 990.560764 415.319157 
L 999.028084 325.103236 
L 1007.495403 384.017684 
L 1015.962722 398.399442 
L 1024.430042 386.251087 
L 1032.897361 384.660633 
L 1041.36468 351.667189 
L 1049.831999 362.326609 
L 1058.299319 293.395689 
L 1066.766638 323.275906 
L 1075.233957 349.163071 
L 1083.701277 362.461967 
L 1092.168596 404.625897 
L 1100.635915 367.740918 
L 1109.103235 306.897622 
L 1117.570554 348.249406 
L 1126.037873 360.736156 
L 1134.505192 379.652398 
L 1142.972512 362.86804 
L 1151.439831 357.724447 
L 1159.90715 398.670158 
L 1168.37447 359.416418 
L 1176.841789 353.257642 
L 1185.309108 341.244644 
L 1193.776428 367.740918 
L 1202.243747 368.146991 
L 1210.711066 352.716211 
L 1219.178385 322.734475 
L 1227.645705 349.027713 
L 1236.113024 358.09668 
L 1244.580343 363.003398 
L 1244.580343 363.003398 
" style="fill:none;stroke:#ff7f0e;stroke-linecap:round;stroke-width:1.5;"/>
   </g>
   <g id="line2d_33">
    <path clip-path="url(#p854084e582)" d="M 169.230792 356.776943 
L 177.698112 357.453731 
L 186.165431 357.453731 
L 194.63275 355.491044 
L 203.100069 356.438548 
L 211.567389 356.540067 
L 220.034708 356.303191 
L 228.502027 355.897117 
L 236.969347 353.900591 
L 245.436666 416.774253 
L 253.903985 618.626456 
L 262.371305 585.869888 
L 270.838624 86.399892 
L 279.305943 179.25529 
L 287.773262 86.129177 
L 296.240582 151.506957 
L 304.707901 136.854483 
L 313.17522 626.815598 
L 321.64254 627.086314 
L 330.109859 624.446838 
L 338.577178 266.053429 
L 347.044498 602.248172 
L 355.511817 86.129177 
L 363.979136 612.298483 
L 372.446455 86.129177 
L 380.913775 86.129177 
L 389.381094 114.655817 
L 397.848413 627.086314 
L 406.315733 626.950956 
L 414.783052 543.333723 
L 423.250371 585.328457 
L 431.717691 86.129177 
L 440.18501 472.778511 
L 448.652329 86.129177 
L 457.119648 471.0527 
L 465.586968 609.117576 
L 474.054287 86.129177 
L 482.521606 232.383196 
L 490.988926 87.178199 
L 499.456245 541.066481 
L 507.923564 627.086314 
L 516.390884 602.789603 
L 524.858203 602.789603 
L 533.325522 438.972919 
L 541.792841 86.129177 
L 550.260161 600.657719 
L 558.72748 86.129177 
L 567.194799 86.129177 
L 575.662119 557.986197 
L 584.129438 337.92838 
L 592.596757 623.397816 
L 601.064077 269.877285 
L 609.531396 114.012868 
L 617.998715 627.086314 
L 626.466034 566.581412 
L 634.933354 86.129177 
L 643.400673 86.129177 
L 651.867992 107.278821 
L 660.335312 433.795487 
L 668.802631 627.086314 
L 677.26995 385.337422 
L 685.73727 544.653461 
L 694.204589 432.340391 
L 702.671908 477.54987 
L 711.139227 86.129177 
L 719.606547 269.775767 
L 728.073866 88.227222 
L 736.541185 288.252096 
L 745.008505 627.086314 
L 753.475824 100.138701 
L 761.943143 627.086314 
L 770.410463 264.361458 
L 778.877782 328.554858 
L 787.345101 504.350699 
L 795.81242 550.575361 
L 804.27974 391.530038 
L 812.747059 340.703213 
L 821.214378 282.05948 
L 829.681698 330.652902 
L 838.149017 341.109286 
L 846.616336 348.350924 
L 855.083656 559.170577 
L 863.550975 278.100267 
L 872.018294 86.399892 
L 880.485613 547.428294 
L 888.952933 356.9123 
L 897.420252 129.579006 
L 905.887571 331.735764 
L 914.354891 132.252321 
L 922.82221 421.376416 
L 931.289529 126.025866 
L 939.756849 423.372942 
L 948.224168 627.086314 
L 956.691487 614.531885 
L 965.158806 508.174555 
L 973.626126 143.453172 
L 982.093445 313.631669 
L 990.560764 431.968157 
L 999.028084 280.8751 
L 1007.495403 272.279884 
L 1015.962722 369.196014 
L 1024.430042 205.040936 
L 1032.897361 445.706966 
L 1041.36468 196.175005 
L 1049.831999 471.729488 
L 1058.299319 473.692175 
L 1066.766638 460.765513 
L 1075.233957 382.156516 
L 1083.701277 233.161503 
L 1092.168596 283.108502 
L 1100.635915 527.869104 
L 1109.103235 497.345937 
L 1117.570554 313.090238 
L 1126.037873 369.466729 
L 1134.505192 351.531831 
L 1142.972512 406.317869 
L 1151.439831 198.408408 
L 1159.90715 335.931853 
L 1168.37447 321.956169 
L 1176.841789 393.391206 
L 1185.309108 261.315909 
L 1193.776428 271.467738 
L 1202.243747 347.301902 
L 1210.711066 347.301902 
L 1219.178385 401.580349 
L 1227.645705 428.922609 
L 1236.113024 350.753524 
L 1244.580343 366.556538 
L 1244.580343 366.556538 
" style="fill:none;stroke:#2ca02c;stroke-linecap:round;stroke-width:1.5;"/>
   </g>
   <g id="patch_3">
    <path d="M 172.8 631.188 
L 172.8 85.104 
" style="fill:none;"/>
   </g>
   <g id="patch_4">
    <path d="M 1244.16 631.188 
L 1244.16 85.104 
" style="fill:none;"/>
   </g>
   <g id="patch_5">
    <path d="M 172.8 631.188 
L 1244.16 631.188 
" style="fill:none;"/>
   </g>
   <g id="patch_6">
    <path d="M 172.8 85.104 
L 1244.16 85.104 
" style="fill:none;"/>
   </g>
   <g id="legend_1">
    <g id="line2d_34">
     <path d="M 1200.489687 97.761813 
L 1220.489687 97.761813 
" style="fill:none;stroke:#1f77b4;stroke-linecap:round;stroke-width:1.5;"/>
    </g>
    <g id="line2d_35"/>
    <g id="text_16">
     <!-- X -->
     <defs>
      <path d="M 0.4375 0 
L 28.125 37.3125 
L 3.71875 71.578125 
L 14.984375 71.578125 
L 27.984375 53.21875 
Q 32.03125 47.515625 33.734375 44.4375 
Q 36.140625 48.34375 39.40625 52.59375 
L 53.8125 71.578125 
L 64.109375 71.578125 
L 38.96875 37.84375 
L 66.0625 0 
L 54.34375 0 
L 36.328125 25.53125 
Q 34.8125 27.734375 33.203125 30.328125 
Q 30.8125 26.421875 29.78125 24.953125 
L 11.8125 0 
z
" id="ArialMT-58"/>
     </defs>
     <g style="fill:#262626;" transform="translate(1228.489687 101.261813)scale(0.1 -0.1)">
      <use xlink:href="#ArialMT-58"/>
     </g>
    </g>
    <g id="line2d_36">
     <path d="M 1200.489687 111.907125 
L 1220.489687 111.907125 
" style="fill:none;stroke:#ff7f0e;stroke-linecap:round;stroke-width:1.5;"/>
    </g>
    <g id="line2d_37"/>
    <g id="text_17">
     <!-- Y -->
     <defs>
      <path d="M 27.875 0 
L 27.875 30.328125 
L 0.296875 71.578125 
L 11.8125 71.578125 
L 25.921875 50 
Q 29.828125 43.953125 33.203125 37.890625 
Q 36.421875 43.5 41.015625 50.53125 
L 54.890625 71.578125 
L 65.921875 71.578125 
L 37.359375 30.328125 
L 37.359375 0 
z
" id="ArialMT-59"/>
     </defs>
     <g style="fill:#262626;" transform="translate(1228.489687 115.407125)scale(0.1 -0.1)">
      <use xlink:href="#ArialMT-59"/>
     </g>
    </g>
    <g id="line2d_38">
     <path d="M 1200.489687 126.052437 
L 1220.489687 126.052437 
" style="fill:none;stroke:#2ca02c;stroke-linecap:round;stroke-width:1.5;"/>
    </g>
    <g id="line2d_39"/>
    <g id="text_18">
     <!-- Z -->
     <defs>
      <path d="M 2 0 
L 2 8.796875 
L 38.671875 54.640625 
Q 42.578125 59.515625 46.09375 63.140625 
L 6.15625 63.140625 
L 6.15625 71.578125 
L 57.421875 71.578125 
L 57.421875 63.140625 
L 17.234375 13.484375 
L 12.890625 8.453125 
L 58.59375 8.453125 
L 58.59375 0 
z
" id="ArialMT-5a"/>
     </defs>
     <g style="fill:#262626;" transform="translate(1228.489687 129.552437)scale(0.1 -0.1)">
      <use xlink:href="#ArialMT-5a"/>
     </g>
    </g>
   </g>
  </g>
 </g>
 <defs>
  <clipPath id="p854084e582">
   <rect height="546.084" width="1071.36" x="172.8" y="85.104"/>
  </clipPath>
 </defs>
</svg>
